{
    "net": {
        "name": "ocean_oc",
        "total_epoch": 6865354,
        "parent": null,
        "loss": 0.013427874560146515,
        "arch": {
            "layers": [
                {
                    "num_of_neurons": 5,
                    "activation": "linear"
                },
                {
                    "num_of_neurons": 50,
                    "activation": "sigmoid"
                },
                {
                    "num_of_neurons": 1,
                    "activation": "sigmoid"
                }
            ],
            "connections": [
                {
                    "type": "full",
                    "input_dim": 5,
                    "output_dim": 50
                },
                {
                    "type": "full",
                    "input_dim": 50,
                    "output_dim": 1
                }
            ]
        },
        "iq_test": {
            "iq": 0,
            "iq_min": 0,
            "iq_max": 0,
            "num_of_tests": 0
        }
    },
    "train_parameters": {
        "teacher": 0,
        "learning_rate": 0,
        "error": 0
    },
    "description": ""
}
